{
    "components": [
        {
            "name": "block-hero",
            "background_image": {
                "src": "/cms_content/images/hero_test2.jpg",
                "alt": "alt text here"
            },
            "favorites_btn": false,
            "heading": [
                "Alumni"
            ],
            "copy": "Lorem ipsum dolor sit amet, consectetuer adipiscing elit, sed diam nonummy nibh euismod tincidunt ut laoreet dolore magna aliquam. Lorem ipsum dolor sit amet, consectetuer adipiscing elit, sed diam nonummy nibh euismod tincidunt ut laoreet dolore magna aliquam",
            "secondary_content_type": "image",
            "image": {
                "src": "/cms_content/images/alumni_test.jpg",
                "alt": "alt text here"
            }
        },
        {
            "name": "block-intro",
            "heading": "Creative Subhead Lorem Ipsum",
            "copy": "Lorem ipsum dolor sit amet, consectetuer adipiscing elit, sed diam nonummy nibh euismod tincidunt ut laoreet dolore magna aliquam eratvolutpat. Lorem ipsum dolor sit amet, consectetuer adipiscing elit, sed diam nonummy nibh euismod tincidunt ut laoreet dolore magna  Lorem ipsum dolor sit amet, consectetuer adipiscing elit, sed diam nonummy nibh euismod tincidunt ut laoreet dolore magna. Lorem ipsum dolor sit amet, consectetuer adipiscing elit, sed diam nonummy nibh euismod tincidunt ut laoreet dolore magna aliquam eratvolutpat.",
            "secondary_content": {
                "side_menu": [
                    {
                        "label": "Academic Programs",
                        "href": "https://www.google.com/"
                    },
                    {
                        "label": "Student Engagement",
                        "href": "https://www.google.com/"
                    },
                    {
                        "label": "Career Development",
                        "href": "https://www.google.com/"
                    },
                    {
                        "label": "About Schulze",
                        "href": "https://www.google.com/"
                    }
                ]
            }
        },
        {
            "name": "block-cta-tabbed-text-body",
            "heading": "Quick Information Branded Headline",
            "content": [
                {
                    "heading": "Time to Completion",
                    "copy": "Lorem ipsum dolor sit amet, consectetuer adipiscing elit, sed diam nonummy nibh euismod tincidunt ut laoreet dolore magna aliquam erat volutpat. Ut wisi enim ad minim veniam, quis nostrud exerci tation ullamcorper suscipit lobortis nisl ut aliquip exnostrud exerci tation ullamcorper suscipit lobortis nisl ut Lorem ipsum dolor sit amet, consectetuer adipiscing elit, sed diam nonummy nibh euismod tincidunt ut laoreet dolore magna aliquam erat volutpat. Ut wisi enim ad minim veniam, quis nostrud exerci tation ullamcorper suscipit lobortis nisl ut aliquip exnostrud exerci tation ullamcorper suscipit lobortis nisl ut."
                },
                {
                    "heading": "Admission Requirements",
                    "copy": "Lorem ipsum dolor sit amet, consectetuer adipiscing elit, sed diam nonummy nibh euismod tincidunt ut laoreet dolore magna aliquam erat volutpat. Ut wisi enim ad minim veniam, quis nostrud exerci tation ullamcorper suscipit lobortis nisl ut aliquip exnostrud exerci tation ullamcorper suscipit lobortis nisl ut Lorem ipsum dolor sit amet, consectetuer adipiscing elit, sed diam nonummy nibh euismod tincidunt ut laoreet dolore magna aliquam erat volutpat."
                },
                {
                    "heading": "Program Structure",
                    "copy": "Lorem ipsum dolor sit amet, consectetuer adipiscing elit, sed diam nonummy nibh euismod tincidunt ut laoreet dolore magna aliquam erat volutpat. Ut wisi enim ad minim veniam, quis nostrud exerci tation ullamcorper suscipit lobortis nisl ut aliquip exnostrud exerci tation ullamcorper suscipit lobortis nisl ut Lorem ipsum dolor sit amet, consectetuer adipiscing elit, sed diam nonummy nibh euismod tincidunt ut laoreet dolore magna aliquam erat volutpat. Ut wisi enim ad minim veniam, quis nostrud exerci tation ullamcorper suscipit lobortis nisl ut aliquip exnostrud exerci tation ullamcorper suscipit lobortis nisl ut. veniam, quis nostrud exerci tation ullamcorper suscipit lobortis nisl ut aliquip exnostrud exerci tation ullamcorper suscipit lobortis nisl ut."
                },
                {
                    "heading": "Career Outcomes",
                    "copy": "Lorem ipsum dolor sit amet, consectetuer adipiscing elit, sed diam nonummy nibh euismod tincidunt ut laoreet dolore magna aliquam erat volutpat. Ut wisi enim ad minim veniam, quis nostrud exerci tation ullamcorper."
                }
            ]
        },
        {
            "name": "block-events",
            "background_type": "dark",
            "heading": "Alumni Events",
            "event_blocks": [
                {
                    "date": "12.06",
                    "heading": "Event Title Lorem Ipsum Dolor",
                    "copy": "Lorem ipsum dolor sit amet, consectetur adipisicing elit.",
                    "cta": {
                        "label": "Register",
                        "href": "https://google.com"
                    }
                },
                {
                    "date": "12.11",
                    "heading": "Event Title Lorem Ipsum Dolor",
                    "copy": "Lorem ipsum dolor sit amet, consectetur adipisicing elit.",
                    "cta": {
                        "label": "Register",
                        "href": "https://google.com"
                    }
                },
                {
                    "date": "12.13",
                    "heading": "Event Title Lorem Ipsum Dolor",
                    "copy": "Lorem ipsum dolor sit amet, consectetur adipisicing elit.",
                    "cta": {
                        "label": "Register",
                        "href": "https://google.com"
                    }
                },
                {
                    "date": "01.08",
                    "heading": "Event Title Lorem Ipsum Dolor",
                    "copy": "Lorem ipsum dolor sit amet, consectetur adipisicing elit.",
                    "cta": {
                        "label": "Register",
                        "href": "https://google.com"
                    }
                }
            ],
            "cta": {
                "label": "View All",
                "href": "https://google.com"
            }
        },
        {
            "name": "block-flipbook",
            "slides": [
                {
                    "name": "Stella Franklin",
                    "title": "Faculty Position",
                    "image": {
                        "src": "/cms_content/images/flipbook_test.jpg",
                        "alt": "test"
                    },
                    "heading": "Leadership & Dean Headline",
                    "copy": "Lorem ipsum dolor sit met, consectetuer elit, sed diam nonummy nibh euismod tincidunt ut laoreet dolore magna aliquam erat volutpat. Ut wisi denim ad minim veniam, quis nostrud exerci tation ullamcorper suscipit lobortis nisl ut aliquip.",
                    "button": {
                        "name": "Lorem Ipsum",
                        "url": "https://www.google.com/"
                    }
                },
                {
                    "name": "Joe McDonald",
                    "title": "Faculty Position",
                    "image": {
                        "src": "/cms_content/images/flipbook_test2.jpg",
                        "alt": "test"
                    },
                    "heading": "Test Headline",
                    "copy": "Tincidunt ut laoreet dolore magna aliquam erat volutpat. Ut wisi denim ad minim veniam, quis nostrud exerci tation ullamcorper suscipit lobortis nisl ut aliquip."
                }
            ]
        }
    ]
}
