{
    "components": [
        {
            "name": "search-results",
            "search_results": [
                {
                    "name": "Academic Calendar",
                    "url": "https://www.google.com/",
                    "description": "Lorem ipsum dolor sit amet, consectetur adipiscing elit. Sed do eiusmod tempor incididunt ut labore et dolore magna aliqua. Ut enim ad minim veniam, quis nostrud."
                },
                {
                    "name": "Lorem Ipsum Dolor Set",
                    "url": "https://www.google.com/",
                    "description": "Lorem ipsum dolor sit amet, consectetur adipiscing elit. Sed do eiusmod tempor incididunt ut labore et dolore magna aliqua. Ut enim ad minim veniam, quis nostrud."
                },
                {
                    "name": "Lorem Ipsum Dolor Set",
                    "url": "https://www.google.com/",
                    "description": "Lorem ipsum dolor sit amet, consectetur adipiscing elit. Sed do eiusmod tempor incididunt ut labore et dolore magna aliqua. Ut enim ad minim veniam, quis nostrud."
                },
                {
                    "name": "Lorem Ipsum Dolor Set",
                    "url": "https://www.google.com/",
                    "description": "Lorem ipsum dolor sit amet, consectetur adipiscing elit. Sed do eiusmod tempor incididunt ut labore et dolore magna aliqua. Ut enim ad minim veniam, quis nostrud."
                },
                {
                    "name": "Lorem Ipsum Dolor Set",
                    "url": "https://www.google.com/",
                    "description": "Lorem ipsum dolor sit amet, consectetur adipiscing elit. Sed do eiusmod tempor incididunt ut labore et dolore magna aliqua. Ut enim ad minim veniam, quis nostrud."
                },
                {
                    "name": "Academic Calendar",
                    "url": "https://www.google.com/",
                    "description": "Lorem ipsum dolor sit amet, consectetur adipiscing elit. Sed do eiusmod tempor incididunt ut labore et dolore magna aliqua. Ut enim ad minim veniam, quis nostrud."
                },
                {
                    "name": "Lorem Ipsum Dolor Set",
                    "url": "https://www.google.com/",
                    "description": "Lorem ipsum dolor sit amet, consectetur adipiscing elit. Sed do eiusmod tempor incididunt ut labore et dolore magna aliqua. Ut enim ad minim veniam, quis nostrud."
                },
                {
                    "name": "Lorem Ipsum Dolor Set",
                    "url": "https://www.google.com/",
                    "description": "Lorem ipsum dolor sit amet, consectetur adipiscing elit. Sed do eiusmod tempor incididunt ut labore et dolore magna aliqua. Ut enim ad minim veniam, quis nostrud."
                },
                {
                    "name": "Lorem Ipsum Dolor Set",
                    "url": "https://www.google.com/",
                    "description": "Lorem ipsum dolor sit amet, consectetur adipiscing elit. Sed do eiusmod tempor incididunt ut labore et dolore magna aliqua. Ut enim ad minim veniam, quis nostrud."
                },
                {
                    "name": "Lorem Ipsum Dolor Set",
                    "url": "https://www.google.com/",
                    "description": "Lorem ipsum dolor sit amet, consectetur adipiscing elit. Sed do eiusmod tempor incididunt ut labore et dolore magna aliqua. Ut enim ad minim veniam, quis nostrud."
                }
            ]
        }
    ]
}
